{
  "project_info": {
    "project_number": "256637870715",
    "firebase_url": "https://movie-portal-cfa47.firebaseio.com",
    "project_id": "movie-portal-cfa47",
    "storage_bucket": "movie-portal-cfa47.appspot.com"
  },
  "client": [
    {
      "client_info": {
        "mobilesdk_app_id": "1:256637870715:android:402463eab1cbadba",
        "android_client_info": {
          "package_name": "com.example.movieportal"
        }
      },
      "oauth_client": [
        {
          "client_id": "256637870715-bo436cmehleutt87okranvg59l8lka8u.apps.googleusercontent.com",
          "client_type": 1,
          "android_info": {
            "package_name": "com.example.movieportal",
            "certificate_hash": "d9188a7c997122114dae20a1200948440cad36cb"
          }
        },
        {
          "client_id": "256637870715-3ha64of3quf2iek3bl62ttqf02s0h9gk.apps.googleusercontent.com",
          "client_type": 3
        }
      ],
      "api_key": [
        {
          "current_key": "AIzaSyBCP0h2bJ43DUavEQVUkiwLVOBiZYo-Dk0"
        }
      ],
      "services": {
        "appinvite_service": {
          "other_platform_oauth_client": [
            {
              "client_id": "256637870715-3ha64of3quf2iek3bl62ttqf02s0h9gk.apps.googleusercontent.com",
              "client_type": 3
            }
          ]
        }
      }
    }
  ],
  "configuration_version": "1"
}